^D:\PROJECT C++\ATSD_LAB_1\TASK_4\TASK_4.C
C:\WINDOWS\GLOBALIZATION\SORTING\SORTDEFAULT.NLS
D:\MICROSOFT VISUAL STUDIO\2022\PROFESSIONAL\VC\TOOLS\MSVC\14.31.31103\BIN\HOSTX64\X64\1033\CLUI.DLL
C:\WINDOWS\SYSTEM32\TZRES.DLL
D:\WINDOWS KITS\10\INCLUDE\10.0.19041.0\UCRT\STDIO.H
D:\WINDOWS KITS\10\INCLUDE\10.0.19041.0\UCRT\CORECRT.H
D:\MICROSOFT VISUAL STUDIO\2022\PROFESSIONAL\VC\TOOLS\MSVC\14.31.31103\INCLUDE\VCRUNTIME.H
D:\MICROSOFT VISUAL STUDIO\2022\PROFESSIONAL\VC\TOOLS\MSVC\14.31.31103\INCLUDE\SAL.H
D:\MICROSOFT VISUAL STUDIO\2022\PROFESSIONAL\VC\TOOLS\MSVC\14.31.31103\INCLUDE\CONCURRENCYSAL.H
D:\MICROSOFT VISUAL STUDIO\2022\PROFESSIONAL\VC\TOOLS\MSVC\14.31.31103\INCLUDE\VADEFS.H
D:\WINDOWS KITS\10\INCLUDE\10.0.19041.0\UCRT\CORECRT_WSTDIO.H
D:\WINDOWS KITS\10\INCLUDE\10.0.19041.0\UCRT\CORECRT_STDIO_CONFIG.H
D:\WINDOWS KITS\10\INCLUDE\10.0.19041.0\UCRT\STDLIB.H
D:\WINDOWS KITS\10\INCLUDE\10.0.19041.0\UCRT\CORECRT_MALLOC.H
D:\WINDOWS KITS\10\INCLUDE\10.0.19041.0\UCRT\CORECRT_SEARCH.H
D:\WINDOWS KITS\10\INCLUDE\10.0.19041.0\UCRT\STDDEF.H
D:\WINDOWS KITS\10\INCLUDE\10.0.19041.0\UCRT\CORECRT_WSTDLIB.H
D:\MICROSOFT VISUAL STUDIO\2022\PROFESSIONAL\VC\TOOLS\MSVC\14.31.31103\INCLUDE\LIMITS.H
D:\WINDOWS KITS\10\INCLUDE\10.0.19041.0\UM\WINDOWS.H
D:\WINDOWS KITS\10\INCLUDE\10.0.19041.0\SHARED\WINAPIFAMILY.H
D:\WINDOWS KITS\10\INCLUDE\10.0.19041.0\SHARED\WINPACKAGEFAMILY.H
D:\WINDOWS KITS\10\INCLUDE\10.0.19041.0\SHARED\SDKDDKVER.H
D:\MICROSOFT VISUAL STUDIO\2022\PROFESSIONAL\VC\TOOLS\MSVC\14.31.31103\INCLUDE\EXCPT.H
D:\MICROSOFT VISUAL STUDIO\2022\PROFESSIONAL\VC\TOOLS\MSVC\14.31.31103\INCLUDE\STDARG.H
D:\WINDOWS KITS\10\INCLUDE\10.0.19041.0\SHARED\WINDEF.H
D:\WINDOWS KITS\10\INCLUDE\10.0.19041.0\SHARED\MINWINDEF.H
D:\WINDOWS KITS\10\INCLUDE\10.0.19041.0\SHARED\SPECSTRINGS.H
D:\WINDOWS KITS\10\INCLUDE\10.0.19041.0\SHARED\SPECSTRINGS_STRICT.H
D:\WINDOWS KITS\10\INCLUDE\10.0.19041.0\SHARED\SPECSTRINGS_UNDEF.H
D:\WINDOWS KITS\10\INCLUDE\10.0.19041.0\SHARED\DRIVERSPECS.H
D:\WINDOWS KITS\10\INCLUDE\10.0.19041.0\SHARED\SDV_DRIVERSPECS.H
D:\WINDOWS KITS\10\INCLUDE\10.0.19041.0\UM\WINNT.H
D:\WINDOWS KITS\10\INCLUDE\10.0.19041.0\UCRT\CTYPE.H
D:\WINDOWS KITS\10\INCLUDE\10.0.19041.0\UCRT\CORECRT_WCTYPE.H
D:\WINDOWS KITS\10\INCLUDE\10.0.19041.0\SHARED\KERNELSPECS.H
D:\WINDOWS KITS\10\INCLUDE\10.0.19041.0\SHARED\BASETSD.H
D:\WINDOWS KITS\10\INCLUDE\10.0.19041.0\SHARED\GUIDDEF.H
D:\WINDOWS KITS\10\INCLUDE\10.0.19041.0\UCRT\STRING.H
D:\WINDOWS KITS\10\INCLUDE\10.0.19041.0\UCRT\CORECRT_MEMORY.H
D:\WINDOWS KITS\10\INCLUDE\10.0.19041.0\UCRT\CORECRT_MEMCPY_S.H
D:\WINDOWS KITS\10\INCLUDE\10.0.19041.0\UCRT\ERRNO.H
D:\MICROSOFT VISUAL STUDIO\2022\PROFESSIONAL\VC\TOOLS\MSVC\14.31.31103\INCLUDE\VCRUNTIME_STRING.H
D:\WINDOWS KITS\10\INCLUDE\10.0.19041.0\UCRT\CORECRT_WSTRING.H
D:\WINDOWS KITS\10\INCLUDE\10.0.19041.0\SHARED\PSHPACK4.H
D:\WINDOWS KITS\10\INCLUDE\10.0.19041.0\SHARED\POPPACK.H
D:\WINDOWS KITS\10\INCLUDE\10.0.19041.0\SHARED\PSHPACK2.H
D:\WINDOWS KITS\10\INCLUDE\10.0.19041.0\SHARED\PSHPACK8.H
D:\WINDOWS KITS\10\INCLUDE\10.0.19041.0\SHARED\PSHPACK1.H
D:\WINDOWS KITS\10\INCLUDE\10.0.19041.0\SHARED\APISET.H
D:\WINDOWS KITS\10\INCLUDE\10.0.19041.0\SHARED\KTMTYPES.H
D:\WINDOWS KITS\10\INCLUDE\10.0.19041.0\UM\WINBASE.H
D:\WINDOWS KITS\10\INCLUDE\10.0.19041.0\SHARED\APISETCCONV.H
D:\WINDOWS KITS\10\INCLUDE\10.0.19041.0\UM\MINWINBASE.H
D:\WINDOWS KITS\10\INCLUDE\10.0.19041.0\UM\APIQUERY2.H
D:\WINDOWS KITS\10\INCLUDE\10.0.19041.0\UM\PROCESSENV.H
D:\WINDOWS KITS\10\INCLUDE\10.0.19041.0\UM\FILEAPIFROMAPP.H
D:\WINDOWS KITS\10\INCLUDE\10.0.19041.0\UM\FILEAPI.H
D:\WINDOWS KITS\10\INCLUDE\10.0.19041.0\UM\DEBUGAPI.H
D:\WINDOWS KITS\10\INCLUDE\10.0.19041.0\UM\UTILAPISET.H
D:\WINDOWS KITS\10\INCLUDE\10.0.19041.0\UM\HANDLEAPI.H
D:\WINDOWS KITS\10\INCLUDE\10.0.19041.0\UM\ERRHANDLINGAPI.H
D:\WINDOWS KITS\10\INCLUDE\10.0.19041.0\UM\FIBERSAPI.H
D:\WINDOWS KITS\10\INCLUDE\10.0.19041.0\UM\NAMEDPIPEAPI.H
D:\WINDOWS KITS\10\INCLUDE\10.0.19041.0\UM\PROFILEAPI.H
D:\WINDOWS KITS\10\INCLUDE\10.0.19041.0\UM\HEAPAPI.H
D:\WINDOWS KITS\10\INCLUDE\10.0.19041.0\UM\IOAPISET.H
D:\WINDOWS KITS\10\INCLUDE\10.0.19041.0\UM\SYNCHAPI.H
D:\WINDOWS KITS\10\INCLUDE\10.0.19041.0\UM\INTERLOCKEDAPI.H
D:\WINDOWS KITS\10\INCLUDE\10.0.19041.0\UM\PROCESSTHREADSAPI.H
D:\WINDOWS KITS\10\INCLUDE\10.0.19041.0\UM\SYSINFOAPI.H
D:\WINDOWS KITS\10\INCLUDE\10.0.19041.0\UM\MEMORYAPI.H
D:\WINDOWS KITS\10\INCLUDE\10.0.19041.0\UM\ENCLAVEAPI.H
D:\WINDOWS KITS\10\INCLUDE\10.0.19041.0\UM\THREADPOOLLEGACYAPISET.H
D:\WINDOWS KITS\10\INCLUDE\10.0.19041.0\UM\THREADPOOLAPISET.H
D:\WINDOWS KITS\10\INCLUDE\10.0.19041.0\UM\JOBAPI.H
D:\WINDOWS KITS\10\INCLUDE\10.0.19041.0\UM\JOBAPI2.H
D:\WINDOWS KITS\10\INCLUDE\10.0.19041.0\UM\WOW64APISET.H
D:\WINDOWS KITS\10\INCLUDE\10.0.19041.0\UM\LIBLOADERAPI.H
D:\WINDOWS KITS\10\INCLUDE\10.0.19041.0\UM\SECURITYBASEAPI.H
D:\WINDOWS KITS\10\INCLUDE\10.0.19041.0\UM\NAMESPACEAPI.H
D:\WINDOWS KITS\10\INCLUDE\10.0.19041.0\UM\SYSTEMTOPOLOGYAPI.H
D:\WINDOWS KITS\10\INCLUDE\10.0.19041.0\UM\PROCESSTOPOLOGYAPI.H
D:\WINDOWS KITS\10\INCLUDE\10.0.19041.0\UM\SECURITYAPPCONTAINER.H
D:\WINDOWS KITS\10\INCLUDE\10.0.19041.0\UM\REALTIMEAPISET.H
D:\WINDOWS KITS\10\INCLUDE\10.0.19041.0\SHARED\WINERROR.H
D:\WINDOWS KITS\10\INCLUDE\10.0.19041.0\UM\TIMEZONEAPI.H
D:\WINDOWS KITS\10\INCLUDE\10.0.19041.0\UM\WINGDI.H
D:\WINDOWS KITS\10\INCLUDE\10.0.19041.0\UM\WINUSER.H
D:\WINDOWS KITS\10\INCLUDE\10.0.19041.0\SHARED\TVOUT.H
D:\WINDOWS KITS\10\INCLUDE\10.0.19041.0\UM\WINNLS.H
D:\WINDOWS KITS\10\INCLUDE\10.0.19041.0\UM\DATETIMEAPI.H
D:\WINDOWS KITS\10\INCLUDE\10.0.19041.0\UM\STRINGAPISET.H
D:\WINDOWS KITS\10\INCLUDE\10.0.19041.0\UM\WINCON.H
D:\WINDOWS KITS\10\INCLUDE\10.0.19041.0\UM\WINCONTYPES.H
D:\WINDOWS KITS\10\INCLUDE\10.0.19041.0\UM\CONSOLEAPI.H
D:\WINDOWS KITS\10\INCLUDE\10.0.19041.0\UM\CONSOLEAPI2.H
D:\WINDOWS KITS\10\INCLUDE\10.0.19041.0\UM\CONSOLEAPI3.H
D:\WINDOWS KITS\10\INCLUDE\10.0.19041.0\UM\WINVER.H
D:\WINDOWS KITS\10\INCLUDE\10.0.19041.0\UM\VERRSRC.H
D:\WINDOWS KITS\10\INCLUDE\10.0.19041.0\UM\WINREG.H
D:\WINDOWS KITS\10\INCLUDE\10.0.19041.0\UM\REASON.H
D:\WINDOWS KITS\10\INCLUDE\10.0.19041.0\UM\WINNETWK.H
D:\WINDOWS KITS\10\INCLUDE\10.0.19041.0\SHARED\WNNC.H
D:\WINDOWS KITS\10\INCLUDE\10.0.19041.0\SHARED\CDERR.H
D:\WINDOWS KITS\10\INCLUDE\10.0.19041.0\UM\DDE.H
D:\WINDOWS KITS\10\INCLUDE\10.0.19041.0\UM\DDEML.H
D:\WINDOWS KITS\10\INCLUDE\10.0.19041.0\UM\DLGS.H
D:\WINDOWS KITS\10\INCLUDE\10.0.19041.0\UM\LZEXPAND.H
D:\WINDOWS KITS\10\INCLUDE\10.0.19041.0\UM\MMSYSTEM.H
D:\WINDOWS KITS\10\INCLUDE\10.0.19041.0\UM\MMSYSCOM.H
D:\WINDOWS KITS\10\INCLUDE\10.0.19041.0\UM\MCIAPI.H
D:\WINDOWS KITS\10\INCLUDE\10.0.19041.0\UM\MMISCAPI.H
D:\WINDOWS KITS\10\INCLUDE\10.0.19041.0\UM\MMISCAPI2.H
D:\WINDOWS KITS\10\INCLUDE\10.0.19041.0\UM\PLAYSOUNDAPI.H
D:\WINDOWS KITS\10\INCLUDE\10.0.19041.0\UM\MMEAPI.H
D:\WINDOWS KITS\10\INCLUDE\10.0.19041.0\UM\TIMEAPI.H
D:\WINDOWS KITS\10\INCLUDE\10.0.19041.0\UM\JOYSTICKAPI.H
D:\WINDOWS KITS\10\INCLUDE\10.0.19041.0\UM\NB30.H
D:\WINDOWS KITS\10\INCLUDE\10.0.19041.0\SHARED\RPC.H
D:\WINDOWS KITS\10\INCLUDE\10.0.19041.0\SHARED\RPCDCE.H
D:\WINDOWS KITS\10\INCLUDE\10.0.19041.0\SHARED\RPCDCEP.H
D:\WINDOWS KITS\10\INCLUDE\10.0.19041.0\UM\RPCNSI.H
D:\WINDOWS KITS\10\INCLUDE\10.0.19041.0\SHARED\RPCNTERR.H
D:\WINDOWS KITS\10\INCLUDE\10.0.19041.0\SHARED\RPCASYNC.H
D:\WINDOWS KITS\10\INCLUDE\10.0.19041.0\UM\SHELLAPI.H
D:\WINDOWS KITS\10\INCLUDE\10.0.19041.0\UM\WINPERF.H
D:\WINDOWS KITS\10\INCLUDE\10.0.19041.0\UM\WINSOCK.H
D:\WINDOWS KITS\10\INCLUDE\10.0.19041.0\SHARED\INADDR.H
D:\WINDOWS KITS\10\INCLUDE\10.0.19041.0\UM\WINCRYPT.H
D:\WINDOWS KITS\10\INCLUDE\10.0.19041.0\SHARED\BCRYPT.H
D:\WINDOWS KITS\10\INCLUDE\10.0.19041.0\UM\NCRYPT.H
D:\WINDOWS KITS\10\INCLUDE\10.0.19041.0\UM\DPAPI.H
D:\WINDOWS KITS\10\INCLUDE\10.0.19041.0\UM\WINEFS.H
D:\WINDOWS KITS\10\INCLUDE\10.0.19041.0\UM\WINSCARD.H
D:\WINDOWS KITS\10\INCLUDE\10.0.19041.0\SHARED\WTYPES.H
D:\WINDOWS KITS\10\INCLUDE\10.0.19041.0\SHARED\RPCNDR.H
D:\WINDOWS KITS\10\INCLUDE\10.0.19041.0\UM\RPCNSIP.H
D:\WINDOWS KITS\10\INCLUDE\10.0.19041.0\SHARED\RPCSAL.H
D:\WINDOWS KITS\10\INCLUDE\10.0.19041.0\SHARED\WTYPESBASE.H
D:\WINDOWS KITS\10\INCLUDE\10.0.19041.0\UM\WINIOCTL.H
D:\WINDOWS KITS\10\INCLUDE\10.0.19041.0\SHARED\WINSMCRD.H
D:\WINDOWS KITS\10\INCLUDE\10.0.19041.0\UM\WINSPOOL.H
D:\WINDOWS KITS\10\INCLUDE\10.0.19041.0\UM\PRSHT.H
D:\WINDOWS KITS\10\INCLUDE\10.0.19041.0\UM\OLE2.H
D:\WINDOWS KITS\10\INCLUDE\10.0.19041.0\UM\OBJBASE.H
D:\WINDOWS KITS\10\INCLUDE\10.0.19041.0\UM\COMBASEAPI.H
D:\WINDOWS KITS\10\INCLUDE\10.0.19041.0\UM\UNKNWNBASE.H
D:\WINDOWS KITS\10\INCLUDE\10.0.19041.0\UM\OBJIDLBASE.H
D:\WINDOWS KITS\10\INCLUDE\10.0.19041.0\UM\CGUID.H
D:\WINDOWS KITS\10\INCLUDE\10.0.19041.0\UM\COML2API.H
D:\WINDOWS KITS\10\INCLUDE\10.0.19041.0\UM\OBJIDL.H
D:\WINDOWS KITS\10\INCLUDE\10.0.19041.0\UM\UNKNWN.H
D:\WINDOWS KITS\10\INCLUDE\10.0.19041.0\UM\PROPIDLBASE.H
D:\WINDOWS KITS\10\INCLUDE\10.0.19041.0\UM\OAIDL.H
D:\WINDOWS KITS\10\INCLUDE\10.0.19041.0\UM\URLMON.H
D:\WINDOWS KITS\10\INCLUDE\10.0.19041.0\UM\OLEIDL.H
D:\WINDOWS KITS\10\INCLUDE\10.0.19041.0\UM\SERVPROV.H
D:\WINDOWS KITS\10\INCLUDE\10.0.19041.0\UM\MSXML.H
D:\WINDOWS KITS\10\INCLUDE\10.0.19041.0\UM\PROPIDL.H
D:\WINDOWS KITS\10\INCLUDE\10.0.19041.0\UM\OLEAUTO.H
D:\WINDOWS KITS\10\INCLUDE\10.0.19041.0\UM\COMMDLG.H
D:\WINDOWS KITS\10\INCLUDE\10.0.19041.0\SHARED\STRALIGN.H
D:\WINDOWS KITS\10\INCLUDE\10.0.19041.0\UM\WINSVC.H
D:\WINDOWS KITS\10\INCLUDE\10.0.19041.0\UM\MCX.H
D:\WINDOWS KITS\10\INCLUDE\10.0.19041.0\UM\IMM.H
D:\WINDOWS KITS\10\INCLUDE\10.0.19041.0\UM\IME_CMODES.H
D:\WINDOWS KITS\10\INCLUDE\10.0.19041.0\UCRT\MATH.H
D:\WINDOWS KITS\10\INCLUDE\10.0.19041.0\UCRT\CORECRT_MATH.H
^D:\ZDU.EDU\АЛГОРИТМИ ТА СТРУКТУРИ ДАНИХ\LAB_1\ATSD_LAB_1\TASK_4\TASK_4.C
C:\WINDOWS\GLOBALIZATION\SORTING\SORTDEFAULT.NLS
D:\MICROSOFT VISUAL STUDIO\2022\PROFESSIONAL\VC\TOOLS\MSVC\14.31.31103\BIN\HOSTX64\X64\1033\CLUI.DLL
C:\WINDOWS\SYSTEM32\TZRES.DLL
D:\WINDOWS KITS\10\INCLUDE\10.0.19041.0\UCRT\STDIO.H
D:\WINDOWS KITS\10\INCLUDE\10.0.19041.0\UCRT\CORECRT.H
D:\MICROSOFT VISUAL STUDIO\2022\PROFESSIONAL\VC\TOOLS\MSVC\14.31.31103\INCLUDE\VCRUNTIME.H
D:\MICROSOFT VISUAL STUDIO\2022\PROFESSIONAL\VC\TOOLS\MSVC\14.31.31103\INCLUDE\SAL.H
D:\MICROSOFT VISUAL STUDIO\2022\PROFESSIONAL\VC\TOOLS\MSVC\14.31.31103\INCLUDE\CONCURRENCYSAL.H
D:\MICROSOFT VISUAL STUDIO\2022\PROFESSIONAL\VC\TOOLS\MSVC\14.31.31103\INCLUDE\VADEFS.H
D:\WINDOWS KITS\10\INCLUDE\10.0.19041.0\UCRT\CORECRT_WSTDIO.H
D:\WINDOWS KITS\10\INCLUDE\10.0.19041.0\UCRT\CORECRT_STDIO_CONFIG.H
D:\WINDOWS KITS\10\INCLUDE\10.0.19041.0\UCRT\STDLIB.H
D:\WINDOWS KITS\10\INCLUDE\10.0.19041.0\UCRT\CORECRT_MALLOC.H
D:\WINDOWS KITS\10\INCLUDE\10.0.19041.0\UCRT\CORECRT_SEARCH.H
D:\WINDOWS KITS\10\INCLUDE\10.0.19041.0\UCRT\STDDEF.H
D:\WINDOWS KITS\10\INCLUDE\10.0.19041.0\UCRT\CORECRT_WSTDLIB.H
D:\MICROSOFT VISUAL STUDIO\2022\PROFESSIONAL\VC\TOOLS\MSVC\14.31.31103\INCLUDE\LIMITS.H
D:\WINDOWS KITS\10\INCLUDE\10.0.19041.0\UM\WINDOWS.H
D:\WINDOWS KITS\10\INCLUDE\10.0.19041.0\SHARED\WINAPIFAMILY.H
D:\WINDOWS KITS\10\INCLUDE\10.0.19041.0\SHARED\WINPACKAGEFAMILY.H
D:\WINDOWS KITS\10\INCLUDE\10.0.19041.0\SHARED\SDKDDKVER.H
D:\MICROSOFT VISUAL STUDIO\2022\PROFESSIONAL\VC\TOOLS\MSVC\14.31.31103\INCLUDE\EXCPT.H
D:\MICROSOFT VISUAL STUDIO\2022\PROFESSIONAL\VC\TOOLS\MSVC\14.31.31103\INCLUDE\STDARG.H
D:\WINDOWS KITS\10\INCLUDE\10.0.19041.0\SHARED\WINDEF.H
D:\WINDOWS KITS\10\INCLUDE\10.0.19041.0\SHARED\MINWINDEF.H
D:\WINDOWS KITS\10\INCLUDE\10.0.19041.0\SHARED\SPECSTRINGS.H
D:\WINDOWS KITS\10\INCLUDE\10.0.19041.0\SHARED\SPECSTRINGS_STRICT.H
D:\WINDOWS KITS\10\INCLUDE\10.0.19041.0\SHARED\SPECSTRINGS_UNDEF.H
D:\WINDOWS KITS\10\INCLUDE\10.0.19041.0\SHARED\DRIVERSPECS.H
D:\WINDOWS KITS\10\INCLUDE\10.0.19041.0\SHARED\SDV_DRIVERSPECS.H
D:\WINDOWS KITS\10\INCLUDE\10.0.19041.0\UM\WINNT.H
D:\WINDOWS KITS\10\INCLUDE\10.0.19041.0\UCRT\CTYPE.H
D:\WINDOWS KITS\10\INCLUDE\10.0.19041.0\UCRT\CORECRT_WCTYPE.H
D:\WINDOWS KITS\10\INCLUDE\10.0.19041.0\SHARED\KERNELSPECS.H
D:\WINDOWS KITS\10\INCLUDE\10.0.19041.0\SHARED\BASETSD.H
D:\WINDOWS KITS\10\INCLUDE\10.0.19041.0\SHARED\GUIDDEF.H
D:\WINDOWS KITS\10\INCLUDE\10.0.19041.0\UCRT\STRING.H
D:\WINDOWS KITS\10\INCLUDE\10.0.19041.0\UCRT\CORECRT_MEMORY.H
D:\WINDOWS KITS\10\INCLUDE\10.0.19041.0\UCRT\CORECRT_MEMCPY_S.H
D:\WINDOWS KITS\10\INCLUDE\10.0.19041.0\UCRT\ERRNO.H
D:\MICROSOFT VISUAL STUDIO\2022\PROFESSIONAL\VC\TOOLS\MSVC\14.31.31103\INCLUDE\VCRUNTIME_STRING.H
D:\WINDOWS KITS\10\INCLUDE\10.0.19041.0\UCRT\CORECRT_WSTRING.H
D:\WINDOWS KITS\10\INCLUDE\10.0.19041.0\SHARED\PSHPACK4.H
D:\WINDOWS KITS\10\INCLUDE\10.0.19041.0\SHARED\POPPACK.H
D:\WINDOWS KITS\10\INCLUDE\10.0.19041.0\SHARED\PSHPACK2.H
D:\WINDOWS KITS\10\INCLUDE\10.0.19041.0\SHARED\PSHPACK8.H
D:\WINDOWS KITS\10\INCLUDE\10.0.19041.0\SHARED\PSHPACK1.H
D:\WINDOWS KITS\10\INCLUDE\10.0.19041.0\SHARED\APISET.H
D:\WINDOWS KITS\10\INCLUDE\10.0.19041.0\SHARED\KTMTYPES.H
D:\WINDOWS KITS\10\INCLUDE\10.0.19041.0\UM\WINBASE.H
D:\WINDOWS KITS\10\INCLUDE\10.0.19041.0\SHARED\APISETCCONV.H
D:\WINDOWS KITS\10\INCLUDE\10.0.19041.0\UM\MINWINBASE.H
D:\WINDOWS KITS\10\INCLUDE\10.0.19041.0\UM\APIQUERY2.H
D:\WINDOWS KITS\10\INCLUDE\10.0.19041.0\UM\PROCESSENV.H
D:\WINDOWS KITS\10\INCLUDE\10.0.19041.0\UM\FILEAPIFROMAPP.H
D:\WINDOWS KITS\10\INCLUDE\10.0.19041.0\UM\FILEAPI.H
D:\WINDOWS KITS\10\INCLUDE\10.0.19041.0\UM\DEBUGAPI.H
D:\WINDOWS KITS\10\INCLUDE\10.0.19041.0\UM\UTILAPISET.H
D:\WINDOWS KITS\10\INCLUDE\10.0.19041.0\UM\HANDLEAPI.H
D:\WINDOWS KITS\10\INCLUDE\10.0.19041.0\UM\ERRHANDLINGAPI.H
D:\WINDOWS KITS\10\INCLUDE\10.0.19041.0\UM\FIBERSAPI.H
D:\WINDOWS KITS\10\INCLUDE\10.0.19041.0\UM\NAMEDPIPEAPI.H
D:\WINDOWS KITS\10\INCLUDE\10.0.19041.0\UM\PROFILEAPI.H
D:\WINDOWS KITS\10\INCLUDE\10.0.19041.0\UM\HEAPAPI.H
D:\WINDOWS KITS\10\INCLUDE\10.0.19041.0\UM\IOAPISET.H
D:\WINDOWS KITS\10\INCLUDE\10.0.19041.0\UM\SYNCHAPI.H
D:\WINDOWS KITS\10\INCLUDE\10.0.19041.0\UM\INTERLOCKEDAPI.H
D:\WINDOWS KITS\10\INCLUDE\10.0.19041.0\UM\PROCESSTHREADSAPI.H
D:\WINDOWS KITS\10\INCLUDE\10.0.19041.0\UM\SYSINFOAPI.H
D:\WINDOWS KITS\10\INCLUDE\10.0.19041.0\UM\MEMORYAPI.H
D:\WINDOWS KITS\10\INCLUDE\10.0.19041.0\UM\ENCLAVEAPI.H
D:\WINDOWS KITS\10\INCLUDE\10.0.19041.0\UM\THREADPOOLLEGACYAPISET.H
D:\WINDOWS KITS\10\INCLUDE\10.0.19041.0\UM\THREADPOOLAPISET.H
D:\WINDOWS KITS\10\INCLUDE\10.0.19041.0\UM\JOBAPI.H
D:\WINDOWS KITS\10\INCLUDE\10.0.19041.0\UM\JOBAPI2.H
D:\WINDOWS KITS\10\INCLUDE\10.0.19041.0\UM\WOW64APISET.H
D:\WINDOWS KITS\10\INCLUDE\10.0.19041.0\UM\LIBLOADERAPI.H
D:\WINDOWS KITS\10\INCLUDE\10.0.19041.0\UM\SECURITYBASEAPI.H
D:\WINDOWS KITS\10\INCLUDE\10.0.19041.0\UM\NAMESPACEAPI.H
D:\WINDOWS KITS\10\INCLUDE\10.0.19041.0\UM\SYSTEMTOPOLOGYAPI.H
D:\WINDOWS KITS\10\INCLUDE\10.0.19041.0\UM\PROCESSTOPOLOGYAPI.H
D:\WINDOWS KITS\10\INCLUDE\10.0.19041.0\UM\SECURITYAPPCONTAINER.H
D:\WINDOWS KITS\10\INCLUDE\10.0.19041.0\UM\REALTIMEAPISET.H
D:\WINDOWS KITS\10\INCLUDE\10.0.19041.0\SHARED\WINERROR.H
D:\WINDOWS KITS\10\INCLUDE\10.0.19041.0\UM\TIMEZONEAPI.H
D:\WINDOWS KITS\10\INCLUDE\10.0.19041.0\UM\WINGDI.H
D:\WINDOWS KITS\10\INCLUDE\10.0.19041.0\UM\WINUSER.H
D:\WINDOWS KITS\10\INCLUDE\10.0.19041.0\SHARED\TVOUT.H
D:\WINDOWS KITS\10\INCLUDE\10.0.19041.0\UM\WINNLS.H
D:\WINDOWS KITS\10\INCLUDE\10.0.19041.0\UM\DATETIMEAPI.H
D:\WINDOWS KITS\10\INCLUDE\10.0.19041.0\UM\STRINGAPISET.H
D:\WINDOWS KITS\10\INCLUDE\10.0.19041.0\UM\WINCON.H
D:\WINDOWS KITS\10\INCLUDE\10.0.19041.0\UM\WINCONTYPES.H
D:\WINDOWS KITS\10\INCLUDE\10.0.19041.0\UM\CONSOLEAPI.H
D:\WINDOWS KITS\10\INCLUDE\10.0.19041.0\UM\CONSOLEAPI2.H
D:\WINDOWS KITS\10\INCLUDE\10.0.19041.0\UM\CONSOLEAPI3.H
D:\WINDOWS KITS\10\INCLUDE\10.0.19041.0\UM\WINVER.H
D:\WINDOWS KITS\10\INCLUDE\10.0.19041.0\UM\VERRSRC.H
D:\WINDOWS KITS\10\INCLUDE\10.0.19041.0\UM\WINREG.H
D:\WINDOWS KITS\10\INCLUDE\10.0.19041.0\UM\REASON.H
D:\WINDOWS KITS\10\INCLUDE\10.0.19041.0\UM\WINNETWK.H
D:\WINDOWS KITS\10\INCLUDE\10.0.19041.0\SHARED\WNNC.H
D:\WINDOWS KITS\10\INCLUDE\10.0.19041.0\SHARED\CDERR.H
D:\WINDOWS KITS\10\INCLUDE\10.0.19041.0\UM\DDE.H
D:\WINDOWS KITS\10\INCLUDE\10.0.19041.0\UM\DDEML.H
D:\WINDOWS KITS\10\INCLUDE\10.0.19041.0\UM\DLGS.H
D:\WINDOWS KITS\10\INCLUDE\10.0.19041.0\UM\LZEXPAND.H
D:\WINDOWS KITS\10\INCLUDE\10.0.19041.0\UM\MMSYSTEM.H
D:\WINDOWS KITS\10\INCLUDE\10.0.19041.0\UM\MMSYSCOM.H
D:\WINDOWS KITS\10\INCLUDE\10.0.19041.0\UM\MCIAPI.H
D:\WINDOWS KITS\10\INCLUDE\10.0.19041.0\UM\MMISCAPI.H
D:\WINDOWS KITS\10\INCLUDE\10.0.19041.0\UM\MMISCAPI2.H
D:\WINDOWS KITS\10\INCLUDE\10.0.19041.0\UM\PLAYSOUNDAPI.H
D:\WINDOWS KITS\10\INCLUDE\10.0.19041.0\UM\MMEAPI.H
D:\WINDOWS KITS\10\INCLUDE\10.0.19041.0\UM\TIMEAPI.H
D:\WINDOWS KITS\10\INCLUDE\10.0.19041.0\UM\JOYSTICKAPI.H
D:\WINDOWS KITS\10\INCLUDE\10.0.19041.0\UM\NB30.H
D:\WINDOWS KITS\10\INCLUDE\10.0.19041.0\SHARED\RPC.H
D:\WINDOWS KITS\10\INCLUDE\10.0.19041.0\SHARED\RPCDCE.H
D:\WINDOWS KITS\10\INCLUDE\10.0.19041.0\SHARED\RPCDCEP.H
D:\WINDOWS KITS\10\INCLUDE\10.0.19041.0\UM\RPCNSI.H
D:\WINDOWS KITS\10\INCLUDE\10.0.19041.0\SHARED\RPCNTERR.H
D:\WINDOWS KITS\10\INCLUDE\10.0.19041.0\SHARED\RPCASYNC.H
D:\WINDOWS KITS\10\INCLUDE\10.0.19041.0\UM\SHELLAPI.H
D:\WINDOWS KITS\10\INCLUDE\10.0.19041.0\UM\WINPERF.H
D:\WINDOWS KITS\10\INCLUDE\10.0.19041.0\UM\WINSOCK.H
D:\WINDOWS KITS\10\INCLUDE\10.0.19041.0\SHARED\INADDR.H
D:\WINDOWS KITS\10\INCLUDE\10.0.19041.0\UM\WINCRYPT.H
D:\WINDOWS KITS\10\INCLUDE\10.0.19041.0\SHARED\BCRYPT.H
D:\WINDOWS KITS\10\INCLUDE\10.0.19041.0\UM\NCRYPT.H
D:\WINDOWS KITS\10\INCLUDE\10.0.19041.0\UM\DPAPI.H
D:\WINDOWS KITS\10\INCLUDE\10.0.19041.0\UM\WINEFS.H
D:\WINDOWS KITS\10\INCLUDE\10.0.19041.0\UM\WINSCARD.H
D:\WINDOWS KITS\10\INCLUDE\10.0.19041.0\SHARED\WTYPES.H
D:\WINDOWS KITS\10\INCLUDE\10.0.19041.0\SHARED\RPCNDR.H
D:\WINDOWS KITS\10\INCLUDE\10.0.19041.0\UM\RPCNSIP.H
D:\WINDOWS KITS\10\INCLUDE\10.0.19041.0\SHARED\RPCSAL.H
D:\WINDOWS KITS\10\INCLUDE\10.0.19041.0\SHARED\WTYPESBASE.H
D:\WINDOWS KITS\10\INCLUDE\10.0.19041.0\UM\WINIOCTL.H
D:\WINDOWS KITS\10\INCLUDE\10.0.19041.0\SHARED\WINSMCRD.H
D:\WINDOWS KITS\10\INCLUDE\10.0.19041.0\UM\WINSPOOL.H
D:\WINDOWS KITS\10\INCLUDE\10.0.19041.0\UM\PRSHT.H
D:\WINDOWS KITS\10\INCLUDE\10.0.19041.0\UM\OLE2.H
D:\WINDOWS KITS\10\INCLUDE\10.0.19041.0\UM\OBJBASE.H
D:\WINDOWS KITS\10\INCLUDE\10.0.19041.0\UM\COMBASEAPI.H
D:\WINDOWS KITS\10\INCLUDE\10.0.19041.0\UM\UNKNWNBASE.H
D:\WINDOWS KITS\10\INCLUDE\10.0.19041.0\UM\OBJIDLBASE.H
D:\WINDOWS KITS\10\INCLUDE\10.0.19041.0\UM\CGUID.H
D:\WINDOWS KITS\10\INCLUDE\10.0.19041.0\UM\COML2API.H
D:\WINDOWS KITS\10\INCLUDE\10.0.19041.0\UM\OBJIDL.H
D:\WINDOWS KITS\10\INCLUDE\10.0.19041.0\UM\UNKNWN.H
D:\WINDOWS KITS\10\INCLUDE\10.0.19041.0\UM\PROPIDLBASE.H
D:\WINDOWS KITS\10\INCLUDE\10.0.19041.0\UM\OAIDL.H
D:\WINDOWS KITS\10\INCLUDE\10.0.19041.0\UM\URLMON.H
D:\WINDOWS KITS\10\INCLUDE\10.0.19041.0\UM\OLEIDL.H
D:\WINDOWS KITS\10\INCLUDE\10.0.19041.0\UM\SERVPROV.H
D:\WINDOWS KITS\10\INCLUDE\10.0.19041.0\UM\MSXML.H
D:\WINDOWS KITS\10\INCLUDE\10.0.19041.0\UM\PROPIDL.H
D:\WINDOWS KITS\10\INCLUDE\10.0.19041.0\UM\OLEAUTO.H
D:\WINDOWS KITS\10\INCLUDE\10.0.19041.0\UM\COMMDLG.H
D:\WINDOWS KITS\10\INCLUDE\10.0.19041.0\SHARED\STRALIGN.H
D:\WINDOWS KITS\10\INCLUDE\10.0.19041.0\UM\WINSVC.H
D:\WINDOWS KITS\10\INCLUDE\10.0.19041.0\UM\MCX.H
D:\WINDOWS KITS\10\INCLUDE\10.0.19041.0\UM\IMM.H
D:\WINDOWS KITS\10\INCLUDE\10.0.19041.0\UM\IME_CMODES.H
D:\WINDOWS KITS\10\INCLUDE\10.0.19041.0\UCRT\MATH.H
D:\WINDOWS KITS\10\INCLUDE\10.0.19041.0\UCRT\CORECRT_MATH.H
