^D:\PROJECT C++\ATSD_LAB_1\TASK_4\X64\DEBUG\TASK_4.OBJ
C:\WINDOWS\SYSTEM32\C_1251.NLS
D:\WINDOWS KITS\10\LIB\10.0.19041.0\UM\X64\KERNEL32.LIB
D:\WINDOWS KITS\10\LIB\10.0.19041.0\UM\X64\USER32.LIB
D:\WINDOWS KITS\10\LIB\10.0.19041.0\UM\X64\GDI32.LIB
D:\WINDOWS KITS\10\LIB\10.0.19041.0\UM\X64\WINSPOOL.LIB
D:\WINDOWS KITS\10\LIB\10.0.19041.0\UM\X64\COMDLG32.LIB
D:\WINDOWS KITS\10\LIB\10.0.19041.0\UM\X64\ADVAPI32.LIB
D:\WINDOWS KITS\10\LIB\10.0.19041.0\UM\X64\SHELL32.LIB
D:\WINDOWS KITS\10\LIB\10.0.19041.0\UM\X64\OLE32.LIB
D:\WINDOWS KITS\10\LIB\10.0.19041.0\UM\X64\OLEAUT32.LIB
D:\WINDOWS KITS\10\LIB\10.0.19041.0\UM\X64\UUID.LIB
D:\WINDOWS KITS\10\LIB\10.0.19041.0\UM\X64\ODBC32.LIB
D:\WINDOWS KITS\10\LIB\10.0.19041.0\UM\X64\ODBCCP32.LIB
D:\PROJECT C++\ATSD_LAB_1\TASK_4\X64\DEBUG\TASK_4.OBJ
D:\PROJECT C++\ATSD_LAB_1\TASK_4\X64\DEBUG\TASK_4.ILK
C:\WINDOWS\SYSTEM32\TZRES.DLL
C:\WINDOWS\GLOBALIZATION\SORTING\SORTDEFAULT.NLS
D:\MICROSOFT VISUAL STUDIO\2022\PROFESSIONAL\VC\TOOLS\MSVC\14.31.31103\LIB\X64\MSVCRTD.LIB
D:\MICROSOFT VISUAL STUDIO\2022\PROFESSIONAL\VC\TOOLS\MSVC\14.31.31103\LIB\X64\OLDNAMES.LIB
D:\MICROSOFT VISUAL STUDIO\2022\PROFESSIONAL\VC\TOOLS\MSVC\14.31.31103\LIB\X64\VCRUNTIMED.LIB
D:\WINDOWS KITS\10\LIB\10.0.19041.0\UCRT\X64\UCRTD.LIB
D:\PROJECT C++\ATSD_LAB_1\TASK_4\X64\DEBUG\VC143.PDB
^D:\ZDU.EDU\АЛГОРИТМИ ТА СТРУКТУРИ ДАНИХ\LAB_1\ATSD_LAB_1\TASK_4\X64\DEBUG\TASK_4.OBJ
C:\WINDOWS\SYSTEM32\C_1251.NLS
D:\WINDOWS KITS\10\LIB\10.0.19041.0\UM\X64\KERNEL32.LIB
D:\WINDOWS KITS\10\LIB\10.0.19041.0\UM\X64\USER32.LIB
D:\WINDOWS KITS\10\LIB\10.0.19041.0\UM\X64\GDI32.LIB
D:\WINDOWS KITS\10\LIB\10.0.19041.0\UM\X64\WINSPOOL.LIB
D:\WINDOWS KITS\10\LIB\10.0.19041.0\UM\X64\COMDLG32.LIB
D:\WINDOWS KITS\10\LIB\10.0.19041.0\UM\X64\ADVAPI32.LIB
D:\WINDOWS KITS\10\LIB\10.0.19041.0\UM\X64\SHELL32.LIB
D:\WINDOWS KITS\10\LIB\10.0.19041.0\UM\X64\OLE32.LIB
D:\WINDOWS KITS\10\LIB\10.0.19041.0\UM\X64\OLEAUT32.LIB
D:\WINDOWS KITS\10\LIB\10.0.19041.0\UM\X64\UUID.LIB
D:\WINDOWS KITS\10\LIB\10.0.19041.0\UM\X64\ODBC32.LIB
D:\WINDOWS KITS\10\LIB\10.0.19041.0\UM\X64\ODBCCP32.LIB
D:\ZDU.EDU\Алгоритми та структури даних\LAB_1\ATSD_LAB_1\TASK_4\X64\DEBUG\TASK_4.OBJ
D:\ZDU.EDU\Алгоритми та структури даних\LAB_1\ATSD_LAB_1\TASK_4\X64\DEBUG\TASK_4.ILK
C:\WINDOWS\SYSTEM32\TZRES.DLL
C:\WINDOWS\GLOBALIZATION\SORTING\SORTDEFAULT.NLS
D:\MICROSOFT VISUAL STUDIO\2022\PROFESSIONAL\VC\TOOLS\MSVC\14.31.31103\LIB\X64\MSVCRTD.LIB
D:\MICROSOFT VISUAL STUDIO\2022\PROFESSIONAL\VC\TOOLS\MSVC\14.31.31103\LIB\X64\OLDNAMES.LIB
D:\MICROSOFT VISUAL STUDIO\2022\PROFESSIONAL\VC\TOOLS\MSVC\14.31.31103\LIB\X64\VCRUNTIMED.LIB
D:\WINDOWS KITS\10\LIB\10.0.19041.0\UCRT\X64\UCRTD.LIB
D:\MICROSOFT VISUAL STUDIO\2022\PROFESSIONAL\VC\TOOLS\MSVC\14.31.31103\BIN\HOSTX64\X64\CVTRES.EXE
D:\ZDU.EDU\алгоритми та структури даних\LAB_1\ATSD_LAB_1\TASK_4\X64\DEBUG\VC143.PDB
