^D:\ZDU.EDU\АЛГОРИТМИ ТА СТРУКТУРИ ДАНИХ\LAB_1\ATSD_LAB_1\TASK_2\TASK_2.C
D:\ZDU.EDU\Алгоритми та структури даних\LAB_1\ATSD_LAB_1\TASK_2\X64\DEBUG\VC143.PDB
D:\ZDU.EDU\Алгоритми та структури даних\LAB_1\ATSD_LAB_1\TASK_2\X64\DEBUG\VC143.IDB
D:\ZDU.EDU\Алгоритми та структури даних\LAB_1\ATSD_LAB_1\TASK_2\X64\DEBUG\TASK_2.OBJ
