^D:\PROJECT C++\ATSD_LAB_1\TASK_1\TASK_1.C
D:\PROJECT C++\ATSD_LAB_1\TASK_1\X64\DEBUG\VC143.PDB
D:\PROJECT C++\ATSD_LAB_1\TASK_1\X64\DEBUG\VC143.IDB
D:\PROJECT C++\ATSD_LAB_1\TASK_1\X64\DEBUG\TASK_1.OBJ
^D:\ZDU.EDU\АЛГОРИТМИ ТА СТРУКТУРИ ДАНИХ\LAB_1\ATSD_LAB_1\TASK_1\TASK_1.C
D:\ZDU.EDU\Алгоритми та структури даних\LAB_1\ATSD_LAB_1\TASK_1\X64\DEBUG\VC143.PDB
D:\ZDU.EDU\Алгоритми та структури даних\LAB_1\ATSD_LAB_1\TASK_1\X64\DEBUG\VC143.IDB
D:\ZDU.EDU\Алгоритми та структури даних\LAB_1\ATSD_LAB_1\TASK_1\X64\DEBUG\TASK_1.OBJ
